…
Now let’s test our function

``` r
perc_win("chw")
```

    ## # A tibble: 100 × 3
    ##     year team               perc
    ##    <dbl> <chr>             <dbl>
    ##  1  2024 Chicago White Sox 0.253
    ##  2  2023 Chicago White Sox 0.377
    ##  3  2022 Chicago White Sox 0.5  
    ##  4  2021 Chicago White Sox 0.574
    ##  5  2020 Chicago White Sox 0.583
    ##  6  2019 Chicago White Sox 0.447
    ##  7  2018 Chicago White Sox 0.383
    ##  8  2017 Chicago White Sox 0.414
    ##  9  2016 Chicago White Sox 0.481
    ## 10  2015 Chicago White Sox 0.469
    ## # ℹ 90 more rows
…
